<svg version="1.1" id="Capa_1" xmlns="http://www.w3.org/2000/svg" xmlns:xlink="http://www.w3.org/1999/xlink" x="0px" y="0px"
	 viewBox="0 0 150 150" enable-background="new 0 0 150 150" xml:space="preserve">
<g id="Your_Icon">
	<path fill="#090509" d="M146.721,43.618c-2.294-2.746-6.357-3.119-9.109-0.828L75.556,94.521l-62.054-51.73
		c-2.748-2.285-6.825-1.911-9.112,0.828c-2.292,2.741-1.92,6.825,0.824,9.112l66.197,55.183c1.199,1,2.673,1.501,4.145,1.501
		c1.471,0,2.946-0.501,4.143-1.501l66.199-55.183C148.639,50.443,149.012,46.362,146.721,43.618z"/>
</g>
</svg>
