<svg version="1.1" id="Capa_1" xmlns="http://www.w3.org/2000/svg" xmlns:xlink="http://www.w3.org/1999/xlink" x="0px" y="0px" viewBox="0 0 150 150" enable-background="new 0 0 150 150" xml:space="preserve">
<path fill="#221E1F" d="M46.608,141.32c-1.567,0-3.136-0.602-4.336-1.799c-2.395-2.39-2.395-6.275,0-8.668l54.439-54.441
	L42.272,21.97c-2.395-2.393-2.395-6.277,0-8.672c2.396-2.395,6.275-2.395,8.672,0l58.777,58.778c2.396,2.392,2.396,6.277,0,8.67
	l-58.777,58.775C49.746,140.719,48.177,141.32,46.608,141.32z"/>
</svg>
